/* XPM */
static char * default_xpm[] = {
"48 48 5 1",
" 	c None",
".	c #014A99",
"+	c #FFFFFF",
"@	c #55BB77",
"#	c #F68466",
"@@@@@@@@@@@@............................++++++++",
"@@@@@@@@@@@@............................++++++++",
"@@@@@@@@@@@@............................++++++++",
"@@@@@@@@@@@@............................++++++++",
"@@@@@@@@@@@@............................++++++++",
"@@@@@@@@@@@@............................++++++++",
"@@@@@@@@@@@.............................++++++++",
"@@@@@@@@@@..............................++++++++",
"@@@@@@@@................................@@@@@@@@",
"@@@@@@@@................................@@@@@@@@",
"@@@@@@@...+++...........................@@@@@@@@",
"@@@@@@...+++++..........................@@@@@@@@",
".........+++++..........................@@@@@@@@",
".........+++++..........................@@@@@@@@",
"..........+++...........................@@@@@@@@",
"........................#####..........@@@@@@@@@",
".....................##########......@@@@@@@@@@@",
"....................############....@@@@@@@@@@@@",
"...................##############...@@@@@@@@@@@@",
"..................################..@@@@@@@@@@@@",
".................##################@@@@@@@@@@@@@",
"................####################@@@@@@@@@@@@",
"................####################@@@@@@@@@@@@",
"................#########+++########@@@@@@@@@@@@",
"................########+++++#######@@@@@@@@@@@@",
"................########+++++#######@@@@@@@@@@@@",
"................########+++++#######@@@@@@@@@@@@",
"................#########+++########@@@@@@@@@@@@",
"................####################@@@@@@@@@@@@",
"................####################@@@@@@@@@@@@",
"................####################@@@@@@@@@@@@",
".................##################@@@@@@@@@@@@@",
"..................################@@@@@@@@@@@@@@",
"...................##############@@@@@@@@@@@@@@@",
"....................############@@@@+++@@@@@@@@@",
".....................##########@@@@+++++@@@@@@@@",
".................@@@@@@@#####@@@@@@+++++........",
"................@@@@@@@@@@@@@@@@@@@+++++........",
"................@@@@@@@@@@@@@@@@@@@@+++.........",
"...............@@@@@@@@@@@@@@@@@@@@@............",
"++++++++@@@@@@@@@@@@@@@@@@@@@@@@@@@@............",
"++++++++@@@@@@@@@@@@@@@@@@@@@@@@@@@@............",
"++++++++@@@@@@@@@@@@@@@@@@@@@@@@@@@@............",
"++++++++@@@@@@@@@@@@@@@@@@@@@@@@@@@@............",
"++++++++@@@@@@@@@@@@@@@@@@@@@@@@@@@@............",
"++++++++@@@@@@@@@@@@@@@@@@@@@@@@@@@@............",
"++++++++@@@@@@@@@@@@@@@@@@@@@@@@@@@@............",
"++++++++@@@@@@@@@@@@@@@@@@@@@@@@@@@@............"};
